C:\oop\ShapeProjectt\src\main\java\com\supitya\shapeprojectt\CircleFrame.java
C:\oop\ShapeProjectt\src\main\java\com\supitya\shapeprojectt\Shape.java
C:\oop\ShapeProjectt\src\main\java\com\supitya\shapeprojectt\Circle.java
